{
  "type": "object",
  "properties" : {
    "id": { "type": "integer" },
    "relative_position": { "type": "integer" },
    "issue": { "type": "object" },
    "epic": {
       "allOf": [
        { "$ref": "../../../../../../../ee/spec/fixtures/api/schemas/public_api/v4/epic.json" }
      ]
    },
    "issue": {
       "allOf": [
        { "$ref": "../../../../../../../spec/fixtures/api/schemas/public_api/v4/issue.json" },
          {
            "properties": {
              "weight": { "type": ["integer", "null"] }
            }
          }
        ]
     }
  },
  "required" : [ "id", "epic", "issue", "relative_position" ],
  "additionalProperties": false
}
